{
    "bdg_num": "14",
    "cs_office": "254",
    "day_start": "9:00am",
    "day_stop": "4:00pm",
    "email": "computer-science@calpoly.edu",
    "fax_num": "805-756-2956",
    "mailing_address": "Computer Science Department, Building 14, Room 254, California Polytechnic State University, San Luis Obispo, Ca 93407-0354",
    "phone_num": "805-756-2824",
    "room_num": "254",
    "time": " 9:00am-12:00pm; 1:00pm-4:00pm",
    "time_department_close": "4:00pm",
    "time_department_end_lunch": "1:00pm",
    "time_department_lunch": "12:00pm",
    "time_department_open": "9:00am",
    "weekday_department_open_end": "friday",
    "weekday_department_open_start": "monday"
}